{
  "collectCoverage": true,
  "collectCoverageFrom": [
    "index.js",
    "app/**/*.js"
  ],
  "coverageDirectory": "shippable/codecoverage",
  "coverageReporters": [
    "text",
    "cobertura"
  ],
  "coverageThreshold": {
    "global": {
      "branches": 100,
      "functions": 100,
      "lines": 100,
      "statements": 100
    }
  },
  "rootDir": "../../",
  "testEnvironment": "node",
  "testMatch": [
    "**/?(*.)(apitest|test).js?(x)"
  ],
  "testResultsProcessor": "./node_modules/jest-junit"
}
